Cheetsheet_4
…
Movie Data: Labelling long movies

movies %>%
  select(1:3) %>%
  mutate(Long = length >= 122.5)

## # A tibble: 58,788 x 4
##    title                     year length Long 
##    <chr>                    <int>  <int> <lgl>
##  1 $                         1971    121 FALSE
##  2 $1000 a Touchdown         1939     71 FALSE
##  3 $21 a Day Once a Month    1941      7 FALSE
##  4 $40,000                   1996     70 FALSE
##  5 $50,000 Climax Show, The  1975     71 FALSE
##  6 $pent                     2000     91 FALSE
##  7 $windle                   2002     93 FALSE
##  8 '15'                      2002     25 FALSE
##  9 '38                       1987     97 FALSE
## 10 '49-'17                   1917     61 FALSE
## #  with 58,778 more rows
…
